<svg xmlns="http://www.w3.org/2000/svg" viewBox="0 0 48 48">
  <path d="M24 1C11.318 1 1 11.318 1 24s10.318 23 23 23 23-10.318 23-23S36.682 1 24 1zm2.286 11l-1.143 16.571h-2.286L21.714 12h4.572zM24 37c-1.657 0-3-1.343-3-3s1.343-3 3-3 3 1.343 3 3-1.343 3-3 3z" fill="#fd365e"/>
</svg>
